/*
 * Copyright 2012 JBoss Inc
 *
 * Licensed under the Apache License, Version 2.0 (the "License");
 * you may not use this file except in compliance with the License.
 * You may obtain a copy of the License at
 *
 *      http://www.apache.org/licenses/LICENSE-2.0
 *
 * Unless required by applicable law or agreed to in writing, software
 * distributed under the License is distributed on an "AS IS" BASIS,
 * WITHOUT WARRANTIES OR CONDITIONS OF ANY KIND, either express or implied.
 * See the License for the specific language governing permissions and
 * limitations under the License.
 */

package org.optaplanner.showcase.app.vehiclerouting.solver;
    dialect "java"

import org.optaplanner.core.api.score.buildin.hardsoft.HardSoftScoreHolder;

import org.optaplanner.showcase.model.vehiclerouting.impl.domain.Depot;
import org.optaplanner.showcase.model.vehiclerouting.impl.domain.timewindowed.TimeWindowedDepot;
import org.optaplanner.showcase.model.vehiclerouting.impl.domain.Customer;
import org.optaplanner.showcase.model.vehiclerouting.impl.domain.timewindowed.TimeWindowedCustomer
import org.optaplanner.showcase.model.vehiclerouting.impl.domain.Vehicle;
import org.optaplanner.showcase.model.vehiclerouting.impl.domain.location.Location;
import org.optaplanner.showcase.model.vehiclerouting.impl.domain.VehicleRoutingSolution;
import org.optaplanner.showcase.model.vehiclerouting.impl.domain.timewindowed.TimeWindowedVehicleRoutingSolution;

global HardSoftScoreHolder scoreHolder;

// ############################################################################
// Hard constraints
// ############################################################################

rule "vehicleCapacity"
    when
        $vehicle : Vehicle($capacity : capacity)
        $demandTotal : Number(intValue > $capacity) from accumulate(
            Customer(
                vehicle == $vehicle,
                $demand : demand),
            sum($demand)
        )
    then
        scoreHolder.addHardConstraintMatch(kcontext, $capacity - $demandTotal.intValue());
end

// ############################################################################
// Soft constraints
// ############################################################################

rule "distanceToPreviousStandstill"
    when
        $customer : Customer(previousStandstill != null, $distanceToPreviousStandstill : distanceToPreviousStandstill)
    then
        scoreHolder.addSoftConstraintMatch(kcontext, - $distanceToPreviousStandstill);
end

rule "distanceFromLastCustomerToDepot"
    when
        $customer : Customer(previousStandstill != null)
        not Customer(previousStandstill == $customer)
    then
        Vehicle vehicle = $customer.getVehicle();
        scoreHolder.addSoftConstraintMatch(kcontext, - $customer.getDistanceTo(vehicle));
end


// ############################################################################
// TimeWindowed: extra hard constraints
// ############################################################################

rule "arrivalAfterDueTime"
    when
        TimeWindowedCustomer(dueTime < arrivalTime, $dueTime : dueTime, $arrivalTime : arrivalTime)
    then
        scoreHolder.addHardConstraintMatch(kcontext, $dueTime - $arrivalTime);
end

// Score constraint arrivalAfterDueTimeAtDepot is a build-in hard constraint in VehicleRoutingImporter
